{
	"lateral_control_params" : { 
		"srtAxis": [-2500,-2400,-2300,-2200,-2100,-2000,-1900,-1800,-1700,-1600,-1500,-1400,-1300,-1200,-1100,-1000,-900,-800,-700,-600,-500,-400,-300,-200,-100,0,100,200,300,400,500,600,700,800,900,1000,1100,1200,1300,1400,1500,1600,1700,1800,1900,2000,2100,2200,2300,2400,2500],
		"deltaAxis": [-0.63342,-0.62146,-0.58759,-0.55505,-0.52368,-0.49335,-0.46392,-0.43531,-0.40744,-0.38023,-0.35362,-0.32756,-0.302,-0.27689,-0.2522,-0.22789,-0.20393,-0.18029,-0.15695,-0.13388,-0.11105,-0.08846,-0.06607,-0.043872,-0.021847,0,0.021847,0.043872,0.06607,0.08846,0.11105,0.13388,0.15695,0.18029,0.20393,0.22789,0.2522,0.27689,0.302,0.32756,0.35362,0.38023,0.40744,0.43531,0.46392,0.49335,0.52368,0.55505,0.58759,0.62146,0.63342],
		"Klqr": [1.0393,-1.2979,0.20221,-2.2411,-0.63365],
		"maxDelta": 0.63342},
	"PurePursuit" : {
		"PP_KP" : 9.0,
		"PP_WBH" : 0.5
	},
	"Filter" : {
		"NUMRMEAN" : 4.0
	}
}
